…
# Figure 3: Count of Studies per Brand by Publishing Year

```r
brand_count_year <- brandcountbyyear %>%
      group_by(Year, Brand) %>%
        summarize(
          count = n()
        )

brand_count_year
```

```
## # A tibble: 38 x 3
## # Groups:   Year [7]
##     Year Brand    count
##    <dbl> <chr>    <int>
##  1  2013 Fitbit       2
##  2  2014 Fitbit       9
##  3  2015 Fitbit      12
##  4  2015 Misfit       3
##  5  2015 Polar        2
##  6  2015 Withings     3
##  7  2016 Apple        2
##  8  2016 Fitbit      26
##  9  2016 Garmin      10
## 10  2016 Mio          3
## # … with 28 more rows
```
…
